{
  "sections": {
    "1636082403004d9d9b": {
      "type": "custom-content",
      "disabled": true,
      "blocks": {
        "1636082403004d9d9b-0": {
          "type": "text",
          "settings": {
            "title": "Talk about your brand",
            "subheading": "",
            "text": "<p>Use this text to share information about your brand with your customers. Describe a product, share announcements, or welcome customers to your store.<\/p>",
            "width": "50%",
            "alignment": "center",
            "align_text": "left",
            "text_size": "medium",
            "text_color": "black",
            "button_label": "",
            "button_link": "",
            "button_style": "sf__btn-primary",
            "button_size": "",
            "block_custom_class": ""
          }
        },
        "1636082403004d9d9b-1": {
          "type": "image",
          "settings": {
            "image": "shopify:\/\/shop_images\/Screen_Shot_2021-11-04_at_11.29.33_PM.png",
            "link": "",
            "width": "50%",
            "alignment": "center",
            "block_custom_class": ""
          }
        },
        "51fc476f-905a-4ae9-9b9e-7c81641794c1": {
          "type": "video",
          "disabled": true,
          "settings": {
            "video_link": "https:\/\/www.youtube.com\/watch?v=_9VUPq3SxOc",
            "ratio": "16:9",
            "video_title": "",
            "text_size": "medium",
            "text_color": "white",
            "play_style": "solid",
            "play_size": "medium",
            "autoplay": false,
            "loop": false,
            "width": "50%",
            "alignment": "start",
            "block_custom_class": ""
          }
        }
      },
      "block_order": [
        "1636082403004d9d9b-0",
        "1636082403004d9d9b-1",
        "51fc476f-905a-4ae9-9b9e-7c81641794c1"
      ],
      "settings": {
        "heading": "",
        "subheading": "",
        "description": "",
        "header_alignment": "center",
        "container": "w-full",
        "background_color": "",
        "gap": 30,
        "use_scroll_mobile": false,
        "gap_mobile": 16,
        "custom_class": ""
      }
    },
    "1635292548422ba4a5": {
      "type": "image-with-text",
      "settings": {
        "heading": "",
        "subheading": "",
        "container": "container-fluid",
        "background_color": "#f8f8f8",
        "item_gap": 38,
        "item_gap_mobile": 0,
        "image": "shopify:\/\/shop_images\/photo4.png",
        "link": "",
        "layout": "right",
        "image_column_size": "5",
        "title": "Local & organic food delivered!",
        "sub_title": "",
        "text": "<p>We are local growers specialized in exotic lettuces and leafy greens, rare fruits and selected produce. We support and partner with local farms and bring you organic and sustainable products. Shop green!<\/p>",
        "text_size": "medium",
        "content_alignment": "left",
        "button_label": "Subscribe Now",
        "button_link": "shopify:\/\/collections\/our-boxes",
        "button_style": "sf__btn-link",
        "button_size": "sf__btn-large",
        "custom_class": ""
      }
    },
    "16225316461d1cff80": {
      "type": "collection-list",
      "blocks": {
        "07ebf095-1da2-4546-87f3-97e73a789e8d": {
          "type": "collection_block",
          "settings": {
            "collection": "cheese-dairy",
            "title": "Cheese & Dairy",
            "item_image": "shopify:\/\/shop_images\/Screen_Shot_2021-11-15_at_11.26.46_PM.png"
          }
        },
        "7a571158-7686-4e66-a693-4716fc905604": {
          "type": "collection_block",
          "settings": {
            "collection": "leafy-greens",
            "title": "Root Crops",
            "item_image": "shopify:\/\/shop_images\/Screen_Shot_2021-11-15_at_11.28.18_PM.png"
          }
        },
        "12985deb-0775-45ce-80f6-6be7f3150a91": {
          "type": "collection_block",
          "settings": {
            "collection": "fresh-leafy-greens",
            "title": "Leafy Greens",
            "item_image": "shopify:\/\/shop_images\/Screen_Shot_2021-11-15_at_11.25.46_PM.png"
          }
        },
        "16225316461d1cff80-2": {
          "type": "collection_block",
          "settings": {
            "collection": "fruits",
            "title": "Fresh Fruits",
            "item_image": "shopify:\/\/shop_images\/Screen_Shot_2021-11-15_at_11.29.46_PM.png"
          }
        },
        "9979774a-a3b5-4884-aeb9-8f21868081f7": {
          "type": "collection_block",
          "settings": {
            "collection": "our-boxes",
            "title": "Our Boxes",
            "item_image": "shopify:\/\/shop_images\/fresh-vegetables-in-the-box-2021-08-28-11-27-37-utc.jpg"
          }
        },
        "791b3c3f-0750-4f8f-b941-1d1fcacf61ac": {
          "type": "banner",
          "disabled": true,
          "settings": {
            "collection": "",
            "title": "New season in town",
            "description": "Claritas est etiam processus dynamicus qui sequitur.",
            "item_bg": "#000000",
            "item_text_color": "#ffffff"
          }
        }
      },
      "block_order": [
        "07ebf095-1da2-4546-87f3-97e73a789e8d",
        "7a571158-7686-4e66-a693-4716fc905604",
        "12985deb-0775-45ce-80f6-6be7f3150a91",
        "16225316461d1cff80-2",
        "9979774a-a3b5-4884-aeb9-8f21868081f7",
        "791b3c3f-0750-4f8f-b941-1d1fcacf61ac"
      ],
      "settings": {
        "heading": "Shop By Collection",
        "subheading": "",
        "description": "",
        "header_alignment": "left",
        "container": "container-fluid",
        "background_color": "",
        "layout": "grid",
        "card_style": "standard",
        "text_alignment": "left",
        "hover_effect": "scaling-up",
        "show_product_count": true,
        "count_inline_title": true,
        "image_rounded": true,
        "items_per_row": 4,
        "item_gap": 30,
        "enable_slider": true,
        "show_pagination": true,
        "show_navigation": true,
        "autorotate": false,
        "autorotate_speed": 4,
        "use_scroll_mobile": true,
        "mobile_gap": 16,
        "hidden_slide_control_mobile": true,
        "custom_class": ""
      }
    },
    "162251092958fcda7c": {
      "type": "product-tabs",
      "blocks": {
        "162251092958fcda7c-1": {
          "type": "tab",
          "settings": {
            "title": "just picked",
            "collection": "newest-products"
          }
        },
        "162251092958fcda7c-0": {
          "type": "tab",
          "settings": {
            "title": "best sellers",
            "collection": "best-selling-products"
          }
        },
        "ca2d4551-2c7d-4127-8e24-a66b44e4ece8": {
          "type": "tab",
          "settings": {
            "title": "staple items",
            "collection": "frontpage"
          }
        }
      },
      "block_order": [
        "162251092958fcda7c-1",
        "162251092958fcda7c-0",
        "ca2d4551-2c7d-4127-8e24-a66b44e4ece8"
      ],
      "settings": {
        "heading": "Browse by",
        "subheading": "",
        "description": "",
        "header_alignment": "center",
        "container": "container-fluid",
        "background_color": "rgba(0,0,0,0)",
        "tab_header": "select",
        "limit": 6,
        "show_button": true,
        "button_type": "load",
        "button_label": "Load More",
        "button_style": "sf__btn-secondary",
        "button_size": "",
        "pcard_layout": "1",
        "pcard_image_ratio": "",
        "show_vendor": false,
        "items_per_row": 5,
        "item_gap": 30,
        "item_gap_mobile": 14,
        "enable_slider": true,
        "show_pagination": false,
        "show_navigation": true,
        "custom_class": ""
      }
    },
    "163529225068d9d929": {
      "type": "custom-content",
      "blocks": {
        "e5288575-3267-4d5a-8a33-4c32a2dffb73": {
          "type": "image_card",
          "settings": {
            "width": "50%",
            "content_position": "center_center",
            "content_alignment": "center",
            "text_size": "large",
            "text_color": "white",
            "image": "shopify:\/\/shop_images\/g.png",
            "link": "shopify:\/\/products\/subscription-big-produce-box",
            "title": "The Big Box",
            "subtitle": "<b>Ideal for 3 to 6 People<\/b>",
            "button_label": "Subscribe & Save 5%",
            "button_style": "sf__btn-white",
            "button_size": "",
            "block_custom_class": ""
          }
        },
        "017697cc-9c45-4c53-94ec-95499b19df8c": {
          "type": "image_card",
          "settings": {
            "width": "50%",
            "content_position": "center_center",
            "content_alignment": "center",
            "text_size": "large",
            "text_color": "white",
            "image": "shopify:\/\/shop_images\/g1.png",
            "link": "shopify:\/\/products\/subscription-small-produce-box",
            "title": "The Little Box",
            "subtitle": "<b>Ideal for 1 to 2 People<\/b>",
            "button_label": "Subscribe & Save 5%",
            "button_style": "sf__btn-white",
            "button_size": "",
            "block_custom_class": ""
          }
        }
      },
      "block_order": [
        "e5288575-3267-4d5a-8a33-4c32a2dffb73",
        "017697cc-9c45-4c53-94ec-95499b19df8c"
      ],
      "settings": {
        "heading": "Subscribe & Save",
        "subheading": "",
        "description": "The best of weekly deals with a mix of local and organic produce, fruits and veggies",
        "header_alignment": "center",
        "container": "container-fluid",
        "background_color": "#f8f8f8",
        "gap": 30,
        "use_scroll_mobile": false,
        "gap_mobile": 16,
        "custom_class": ""
      }
    },
    "1637016499abdc37df": {
      "type": "image-with-text",
      "settings": {
        "heading": "",
        "subheading": "",
        "container": "container-fluid",
        "background_color": "rgba(0,0,0,0)",
        "item_gap": 100,
        "item_gap_mobile": 30,
        "image": "shopify:\/\/shop_images\/farm4.png",
        "link": "",
        "layout": "right",
        "image_column_size": "6",
        "title": "About Our Farm",
        "sub_title": "",
        "text": "<p>We are local growers specialized in exotic lettuces and leafy greens, rare fruits and selected produce. We support and partner with local farms and bring you organic and sustainable products.<\/p>",
        "text_size": "medium",
        "content_alignment": "left",
        "button_label": "Learn More",
        "button_link": "shopify:\/\/pages\/about-us-new",
        "button_style": "sf__btn-link",
        "button_size": "sf__btn-large",
        "custom_class": ""
      }
    },
    "1637018998c7ccbf95": {
      "type": "image-with-text",
      "settings": {
        "heading": "",
        "subheading": "",
        "container": "container-fluid",
        "background_color": "#f8f8f8",
        "item_gap": 100,
        "item_gap_mobile": 30,
        "image": "shopify:\/\/shop_images\/vlog.png",
        "link": "",
        "layout": "left",
        "image_column_size": "6",
        "title": "Become an Ambassador",
        "sub_title": "",
        "text": "<p>Get up to 10% in commissions on successful referrals. Earn commissions from all qualifying purchases, not just the products you advertised. Plus, our competitive conversion rates help you maximize your earnings.<\/p>",
        "text_size": "medium",
        "content_alignment": "left",
        "button_label": "Apply Now",
        "button_link": "shopify:\/\/pages\/become-an-ambassador",
        "button_style": "sf__btn-link",
        "button_size": "sf__btn-large",
        "custom_class": ""
      }
    },
    "16225125199f82d8fe": {
      "type": "icon-box",
      "blocks": {
        "16225125199f82d8fe-0": {
          "type": "iconbox",
          "settings": {
            "image": "shopify:\/\/shop_images\/free-shipping.png",
            "title": "Free Shipping",
            "description": "<p>On orders above $50<\/p>",
            "link": "",
            "button_label": "",
            "button_link": "",
            "button_style": "sf__btn-link",
            "button_size": ""
          }
        },
        "16225125199f82d8fe-1": {
          "type": "iconbox",
          "settings": {
            "image": "shopify:\/\/shop_images\/3274281.png",
            "title": "Always Organic",
            "description": "<p>Food powered by nature<\/p>",
            "link": "",
            "button_label": "",
            "button_link": "",
            "button_style": "sf__btn-link",
            "button_size": ""
          }
        },
        "71deafbb-3baf-443a-a087-3f7b8af7b9fa": {
          "type": "iconbox",
          "settings": {
            "image": "shopify:\/\/shop_images\/cow_1.png",
            "title": "Support Local",
            "description": "<p>Keeps our farm going<\/p>",
            "link": "",
            "button_label": "",
            "button_link": "",
            "button_style": "sf__btn-link",
            "button_size": ""
          }
        },
        "16225125199f82d8fe-2": {
          "type": "iconbox",
          "settings": {
            "image": "shopify:\/\/shop_images\/information.png",
            "title": "Online Support",
            "description": "<p>Just drop us a <a href=\"\/pages\/contact-us\" title=\"Contact Us\">message<\/a><\/p>",
            "link": "",
            "button_label": "",
            "button_link": "",
            "button_style": "sf__btn-link",
            "button_size": ""
          }
        }
      },
      "block_order": [
        "16225125199f82d8fe-0",
        "16225125199f82d8fe-1",
        "71deafbb-3baf-443a-a087-3f7b8af7b9fa",
        "16225125199f82d8fe-2"
      ],
      "settings": {
        "heading": "",
        "subheading": "",
        "description": "",
        "header_alignment": "center",
        "container": "container",
        "background_color": "#fafafa",
        "item_per_row": 4,
        "item_gap": 30,
        "item_gap_mobile": 10,
        "card_style": "horizontal",
        "image_max_width": "60px",
        "content_alignment": "start",
        "hover_effect": "none",
        "enable_slider": false,
        "show_pagination": true,
        "show_navigation": true,
        "use_scroll_mobile": false,
        "use_grid_column_mb": false,
        "custom_class": ""
      }
    },
    "1636082399cda7d82a": {
      "type": "video",
      "disabled": true,
      "settings": {
        "container": "w-full",
        "background_color": "",
        "video_link": "https:\/\/www.youtube.com\/watch?v=_9VUPq3SxOc",
        "ratio": "16:9",
        "image": "shopify:\/\/shop_images\/Screen_Shot_2021-10-21_at_9.44.58_PM_b9b0143c-84f4-481d-bdfe-36ac9cb8f78d.png",
        "video_title": "Learn About Our Farm",
        "text_size": "large",
        "text_color": "white",
        "play_style": "outline",
        "play_size": "medium",
        "width": "1800px",
        "autoplay": false,
        "loop": false,
        "custom_class": ""
      }
    },
    "pagefly-home": {
      "type": "pagefly-home",
      "disabled": true,
      "settings": {}
    }
  },
  "order": [
    "1636082403004d9d9b",
    "1635292548422ba4a5",
    "16225316461d1cff80",
    "162251092958fcda7c",
    "163529225068d9d929",
    "1637016499abdc37df",
    "1637018998c7ccbf95",
    "16225125199f82d8fe",
    "1636082399cda7d82a",
    "pagefly-home"
  ]
}